<svg xmlns="http://www.w3.org/2000/svg" width="218" height="142.873" viewBox="0 0 218 142.873">
  <g id="DataAudit" transform="translate(0 -9.127)">
    <rect id="Rectangle_213" data-name="Rectangle 213" width="218" height="85" rx="16" transform="translate(0 67)" fill="#a3aab8"/>
    <g id="dataaudit-2" data-name="dataaudit" transform="translate(58.5 9.127)">
      <path id="Path_1860" data-name="Path 1860" d="M10.668,0H73.244A6.258,6.258,0,0,1,79.5,6.257v50.06a6.258,6.258,0,0,1-6.257,6.257H10.668a6.258,6.258,0,0,1-6.257-6.257V6.257A6.257,6.257,0,0,1,10.668,0Z" transform="translate(0)" fill="#87ced9"/>
      <path id="Path_1861" data-name="Path 1861" d="M30.893,26.483h3.129v3.129H30.893Zm6.258,0h3.129v3.129H37.151Zm6.257,0h3.129v3.129H43.408ZM41.844,34.3h62.575a6.258,6.258,0,0,1,6.257,6.257v50.06a6.258,6.258,0,0,1-6.257,6.257H41.844a6.258,6.258,0,0,1-6.257-6.257V40.562A6.257,6.257,0,0,1,41.844,34.3Z" transform="translate(-21.789 -21.79)" fill="#4398d1"/>
      <path id="Path_1862" data-name="Path 1862" d="M190.539,70.621h-7.432c-11.212,35.7-32.681,53.74-47.545,62.575h54.977a6.258,6.258,0,0,0,6.257-6.257V76.878A6.258,6.258,0,0,0,190.539,70.621Z" transform="translate(-107.909 -58.106)" fill="#3f8fc4"/>
      <path id="Path_1863" data-name="Path 1863" d="M83.859,97.1h3.129v3.129H83.859Zm6.257,0h3.129v3.129H90.116Zm6.258,0H99.5v3.129H96.374Z" transform="translate(-65.369 -79.895)" fill="#87ced9"/>
      <path id="Path_1864" data-name="Path 1864" d="M83.859,171.523h65.7v3.129h-65.7Zm3.129-12.515h3.129v9.386H86.988Zm6.257-9.386h3.129v18.773H93.245Zm6.258,4.693h3.129v14.079H99.5Zm6.257-10.951h3.129v25.03H105.76Zm6.258-3.129h3.129v28.159h-3.129Zm6.257,1.564H121.4v10.951h-3.129Zm6.257-6.257h3.129v17.208h-3.129Zm6.258-3.129h3.129v20.337H130.79Zm6.257,6.257h3.129v29.723h-3.129Zm6.257,6.257h3.129v23.466h-3.129Z" transform="translate(-65.369 -108.948)" fill="#3685ba"/>
      <path id="Path_1865" data-name="Path 1865" d="M0,0H6.638V26.549H0Z" transform="matrix(-0.707, 0.707, -0.707, -0.707, 93.595, 86.052)" fill="#fdb62f"/>
      <path id="Path_1866" data-name="Path 1866" d="M0,0H6.638V8.85H0Z" transform="matrix(-0.707, 0.707, -0.707, -0.707, 81.068, 73.531)" fill="#fa962a"/>
      <circle id="Ellipse_87" data-name="Ellipse 87" cx="20.337" cy="20.337" r="20.337" transform="translate(40.392 39.109)" fill="#fdb62f"/>
      <circle id="Ellipse_88" data-name="Ellipse 88" cx="14.079" cy="14.079" r="14.079" transform="translate(46.649 45.367)" fill="#87ced9"/>
      <path id="Path_1867" data-name="Path 1867" d="M243.117,273.207a13.9,13.9,0,0,0,1.12,3.129h25.2a13.909,13.909,0,0,0,1.12-3.129Zm15.282-3.129V256.091a13.258,13.258,0,0,0-3.129,0v13.987Zm-6.257,0V256.817a14.012,14.012,0,0,0-3.129,1.556v11.7Zm12.515,0v-11.7a14.006,14.006,0,0,0-3.129-1.556v13.261Zm-18.773-8.84a14.013,14.013,0,0,0-3.129,8.84h3.129Zm21.9,8.84h3.129a14.015,14.015,0,0,0-3.129-8.84Z" transform="translate(-196.107 -210.632)" fill="#4398d1"/>
    </g>
  </g>
</svg>
